%YAML 1.1
%TAG !u! tag:unity3d.com,2011:
--- !u!1001 &1192890581400644011
PrefabInstance:
  m_ObjectHideFlags: 0
  serializedVersion: 2
  m_Modification:
    m_TransformParent: {fileID: 0}
    m_Modifications:
    - target: {fileID: 478306064116310448, guid: e78fda6e62bf8654585fe695741899a6,
        type: 3}
      propertyPath: m_Name
      value: Bee
      objectReference: {fileID: 0}
    - target: {fileID: 1002218559849446154, guid: e78fda6e62bf8654585fe695741899a6,
        type: 3}
      propertyPath: m_RootOrder
      value: 0
      objectReference: {fileID: 0}
    - target: {fileID: 1002218559849446154, guid: e78fda6e62bf8654585fe695741899a6,
        type: 3}
      propertyPath: m_LocalPosition.x
      value: 0
      objectReference: {fileID: 0}
    - target: {fileID: 1002218559849446154, guid: e78fda6e62bf8654585fe695741899a6,
        type: 3}
      propertyPath: m_LocalPosition.y
      value: 0
      objectReference: {fileID: 0}
    - target: {fileID: 1002218559849446154, guid: e78fda6e62bf8654585fe695741899a6,
        type: 3}
      propertyPath: m_LocalPosition.z
      value: 0
      objectReference: {fileID: 0}
    - target: {fileID: 1002218559849446154, guid: e78fda6e62bf8654585fe695741899a6,
        type: 3}
      propertyPath: m_LocalRotation.w
      value: 1
      objectReference: {fileID: 0}
    - target: {fileID: 1002218559849446154, guid: e78fda6e62bf8654585fe695741899a6,
        type: 3}
      propertyPath: m_LocalRotation.x
      value: 0
      objectReference: {fileID: 0}
    - target: {fileID: 1002218559849446154, guid: e78fda6e62bf8654585fe695741899a6,
        type: 3}
      propertyPath: m_LocalRotation.y
      value: 0
      objectReference: {fileID: 0}
    - target: {fileID: 1002218559849446154, guid: e78fda6e62bf8654585fe695741899a6,
        type: 3}
      propertyPath: m_LocalRotation.z
      value: 0
      objectReference: {fileID: 0}
    - target: {fileID: 1002218559849446154, guid: e78fda6e62bf8654585fe695741899a6,
        type: 3}
      propertyPath: m_LocalEulerAnglesHint.x
      value: 0
      objectReference: {fileID: 0}
    - target: {fileID: 1002218559849446154, guid: e78fda6e62bf8654585fe695741899a6,
        type: 3}
      propertyPath: m_LocalEulerAnglesHint.y
      value: 0
      objectReference: {fileID: 0}
    - target: {fileID: 1002218559849446154, guid: e78fda6e62bf8654585fe695741899a6,
        type: 3}
      propertyPath: m_LocalEulerAnglesHint.z
      value: 0
      objectReference: {fileID: 0}
    m_RemovedComponents: []
  m_SourcePrefab: {fileID: 100100000, guid: e78fda6e62bf8654585fe695741899a6, type: 3}
